Forecasting with Linear Regression
…
The Auto Regressive (AR) model is a common approach in time series forecasting to model time series with high correlation with its past lags. The AR model is part of a family of models that construct the ARIMA family of models.

At its core, AR model is a regression of the series with its previous lags. For example, AR 1 model would be a regression of the series with its lag one:

\[
Y_t = \alpha + \beta * Y_{t-1}
\]

Let’s create a lag 1 feature:

ts1$lag1 <- dplyr::lag(ts1$y, n = 1)

ts1

# A tsibble: 38 x 10 [1Y]
   index       y series_id trend     fit1     res1 trend2   fit2    res2    lag1
   <int>   <int> <chr>     <int>    <dbl>    <dbl>  <dbl>  <dbl>   <dbl>   <int>
 1  1987 7904858 SCA           1 8217412. -312554.      0 8.01e6 -1.00e5      NA
 2  1988 8113034 SCA           2 8311426. -198392.      0 8.12e6 -8.22e3 7904858
 3  1989 8313776 SCA           3 8405439.  -91663.      0 8.24e6  7.64e4 8113034
 4  1990 8497848 SCA           4 8499453.   -1605.      0 8.35e6  1.44e5 8313776
 5  1991 8634774 SCA           5 8593467.   41307.      0 8.47e6  1.65e5 8497848
 6  1992 8680613 SCA           6 8687480.   -6867.      0 8.59e6  9.48e4 8634774
 7  1993 8726187 SCA           7 8781494.  -55307.      0 8.70e6  2.42e4 8680613
 8  1994 8790733 SCA           8 8875508.  -84775.      0 8.82e6 -2.74e4 8726187
 9  1995 8865541 SCA           9 8969521. -103980.      0 8.93e6 -6.87e4 8790733
10  1996 8969308 SCA          10 9063535.  -94227.      0 9.05e6 -8.11e4 8865541
# ℹ 28 more rows
…
p

Let’s decompose the series:

stl_d <- ts2 |> model( STL(y)) |> components()

plot_decomposition(stl_d, var = "y", outliers = TRUE)

We will build the features step-by-step to review the impact of each feature on the goodness of fit. Let’s start by defining the trend feature:

ts2$trend <- 1:nrow(ts2)

ts2

# A tsibble: 297 x 5 [1M]
      index date             y series_id trend
      <mth> <date>       <int> <chr>     <int>
 1 2001 Jan 2001-01-01 2505011 NUS           1
 2 2001 Feb 2001-02-01 2156873 NUS           2
 3 2001 Mar 2001-03-01 2086568 NUS           3
 4 2001 Apr 2001-04-01 1663832 NUS           4
 5 2001 May 2001-05-01 1385163 NUS           5
 6 2001 Jun 2001-06-01 1313119 NUS           6
 7 2001 Jul 2001-07-01 1459919 NUS           7
 8 2001 Aug 2001-08-01 1528483 NUS           8
 9 2001 Sep 2001-09-01 1360871 NUS           9
10 2001 Oct 2001-10-01 1507428 NUS          10
# ℹ 287 more rows
…
p1

ts2$res1 <- ts2$y - ts2$fit1

TipDetranding the Series

If you check the model residuals, you will noticed that the residuals are detrained version of the original series.

We will now add the seasonal feature by creating a categorical variable for each month of the year:

ts2$month <- lubridate::month(ts2$index, label = TRUE)
ts2

# A tsibble: 297 x 8 [1M]
      index date             y series_id trend     fit1     res1 month
      <mth> <date>       <int> <chr>     <int>    <dbl>    <dbl> <ord>
 1 2001 Jan 2001-01-01 2505011 NUS           1 1565892.  939119. Jan  
 2 2001 Feb 2001-02-01 2156873 NUS           2 1568968.  587905. Feb  
 3 2001 Mar 2001-03-01 2086568 NUS           3 1572043.  514525. Mar  
 4 2001 Apr 2001-04-01 1663832 NUS           4 1575118.   88714. Apr  
 5 2001 May 2001-05-01 1385163 NUS           5 1578193. -193030. May  
 6 2001 Jun 2001-06-01 1313119 NUS           6 1581269. -268150. Jun  
 7 2001 Jul 2001-07-01 1459919 NUS           7 1584344. -124425. Jul  
 8 2001 Aug 2001-08-01 1528483 NUS           8 1587419.  -58936. Aug  
 9 2001 Sep 2001-09-01 1360871 NUS           9 1590494. -229623. Sep  
10 2001 Oct 2001-10-01 1507428 NUS          10 1593570.  -86142. Oct  
# ℹ 287 more rows
…
p3

let’s plot the residuals:

ts2$res3 <- ts2$y - ts2$fit3

plot_ly(x = ts2$date, y = ts2$res3, type = "scatter", mode = "markers")

Let’s generate a forecast for the next 5 years (60 months):

h <- 60
future_data <- new_data(ts2, n = h)
future_data

# A tsibble: 60 x 1 [1M]
      index
      <mth>
 1 2025 Oct
 2 2025 Nov
 3 2025 Dec
 4 2026 Jan
 5 2026 Feb
 6 2026 Mar
 7 2026 Apr
 8 2026 May
 9 2026 Jun
10 2026 Jul
# ℹ 50 more rows

We will have to build all the features we used so far:

trend_start <- max(ts2$trend) + 1
trend_end <- trend_start + h - 1
future_data$trend <- trend_start:trend_end
future_data$month <- lubridate::month(future_data$index, label = TRUE)
future_data$structural_break <- 1
future_data$date <- as.Date(future_data$index)
future_data

# A tsibble: 60 x 5 [1M]
      index trend month structural_break date      
      <mth> <int> <ord>            <dbl> <date>    
 1 2025 Oct   298 Oct                  1 2025-10-01
 2 2025 Nov   299 Nov                  1 2025-11-01
 3 2025 Dec   300 Dec                  1 2025-12-01
 4 2026 Jan   301 Jan                  1 2026-01-01
 5 2026 Feb   302 Feb                  1 2026-02-01
 6 2026 Mar   303 Mar                  1 2026-03-01
 7 2026 Apr   304 Apr                  1 2026-04-01
 8 2026 May   305 May                  1 2026-05-01
 9 2026 Jun   306 Jun                  1 2026-06-01
10 2026 Jul   307 Jul                  1 2026-07-01
# ℹ 50 more rows

Now we can use the predict function to create the forecast:

fcs1 <- predict(object = mds3, newdata = future_data, interval = "prediction", level = 0.95)

future_data$yhat <- fcs1[,1]
future_data$lower <- fcs1[,2]
future_data$upper <- fcs1[,3]
future_data

# A tsibble: 60 x 8 [1M]
      index trend month structural_break date           yhat    lower    upper
      <mth> <int> <ord>            <dbl> <date>        <dbl>    <dbl>    <dbl>
 1 2025 Oct   298 Oct                  1 2025-10-01 2215535. 1979202. 2451867.
 2 2025 Nov   299 Nov                  1 2025-11-01 2490542. 2254209. 2726874.
 3 2025 Dec   300 Dec                  1 2025-12-01 2987071. 2750739. 3223404.
 4 2026 Jan   301 Jan                  1 2026-01-01 3281339. 3045109. 3517568.
 5 2026 Feb   302 Feb                  1 2026-02-01 2954007. 2717778. 3190237.
 6 2026 Mar   303 Mar                  1 2026-03-01 2752218. 2515988. 2988447.
 7 2026 Apr   304 Apr                  1 2026-04-01 2323370. 2087141. 2559600.
 8 2026 May   305 May                  1 2026-05-01 2160999. 1924769. 2397228.
 9 2026 Jun   306 Jun                  1 2026-06-01 2175406. 1939176. 2411635.
10 2026 Jul   307 Jul                  1 2026-07-01 2369222. 2132993. 2605452.
# ℹ 50 more rows
…
