Modeling Trend
…
Let’s update the above model formula:

\[
Y_t = \beta_0 + \beta_1 * trend +  \beta_2 * Y_{t-1}
\]

And create a lag 1 feature:

ts1$lag1 <- dplyr::lag(ts1$y, n = 1)

ts1

# A tsibble: 38 x 9 [1Y]
   index       y series_id trend     fit1     res1 trend2     fit2    lag1
   <int>   <int> <chr>     <int>    <dbl>    <dbl>  <dbl>    <dbl>   <int>
 1  1987 7904858 SCA           1 8217412. -312554.      0 8005104.      NA
 2  1988 8113034 SCA           2 8311426. -198392.      0 8121250. 7904858
 3  1989 8313776 SCA           3 8405439.  -91663.      0 8237396. 8113034
 4  1990 8497848 SCA           4 8499453.   -1605.      0 8353542. 8313776
 5  1991 8634774 SCA           5 8593467.   41307.      0 8469688. 8497848
 6  1992 8680613 SCA           6 8687480.   -6867.      0 8585835. 8634774
 7  1993 8726187 SCA           7 8781494.  -55307.      0 8701981. 8680613
 8  1994 8790733 SCA           8 8875508.  -84775.      0 8818127. 8726187
 9  1995 8865541 SCA           9 8969521. -103980.      0 8934273. 8790733
10  1996 8969308 SCA          10 9063535.  -94227.      0 9050419. 8865541
# ℹ 28 more rows
…
