Modeling Seasonality
…
plot_decomposition(stl_d, var = "y", outliers = TRUE)

Likewise, let’s review the ACF plot:

plot_acf(ts = ts2, var = "y", lag_max = 72, frequency = 12, alpha = 0.05)

Add Trend Feature

We will build the features step-by-step to review the impact of each feature on the goodness of fit. Let’s start by defining the trend feature:

ts2$trend <- 1:nrow(ts2)

ts2

# A tsibble: 297 x 5 [1M]
      index date             y series_id trend
      <mth> <date>       <int> <chr>     <int>
 1 2001 Jan 2001-01-01 2505011 NUS           1
 2 2001 Feb 2001-02-01 2156873 NUS           2
 3 2001 Mar 2001-03-01 2086568 NUS           3
 4 2001 Apr 2001-04-01 1663832 NUS           4
 5 2001 May 2001-05-01 1385163 NUS           5
 6 2001 Jun 2001-06-01 1313119 NUS           6
 7 2001 Jul 2001-07-01 1459919 NUS           7
 8 2001 Aug 2001-08-01 1528483 NUS           8
 9 2001 Sep 2001-09-01 1360871 NUS           9
10 2001 Oct 2001-10-01 1507428 NUS          10
# ℹ 287 more rows
…
TipDetranding the Series

If you check the model residuals, you will noticed that the residuals are detrained version of the original series.

Add Seasonal Feature

We will now add the seasonal feature by creating a categorical variable for each month of the year:

ts2$month <- lubridate::month(ts2$index, label = TRUE)
ts2

# A tsibble: 297 x 7 [1M]
      index date             y series_id trend     fit1 month
      <mth> <date>       <int> <chr>     <int>    <dbl> <ord>
 1 2001 Jan 2001-01-01 2505011 NUS           1 1565892. Jan  
 2 2001 Feb 2001-02-01 2156873 NUS           2 1568968. Feb  
 3 2001 Mar 2001-03-01 2086568 NUS           3 1572043. Mar  
 4 2001 Apr 2001-04-01 1663832 NUS           4 1575118. Apr  
 5 2001 May 2001-05-01 1385163 NUS           5 1578193. May  
 6 2001 Jun 2001-06-01 1313119 NUS           6 1581269. Jun  
 7 2001 Jul 2001-07-01 1459919 NUS           7 1584344. Jul  
 8 2001 Aug 2001-08-01 1528483 NUS           8 1587419. Aug  
 9 2001 Sep 2001-09-01 1360871 NUS           9 1590494. Sep  
10 2001 Oct 2001-10-01 1507428 NUS          10 1593570. Oct  
# ℹ 287 more rows
…
Let’s now create the forecast with the predict function:

fc2 <- predict(
    object = md2,
    newdata = future_data,
    interval = "prediction",
    level = 0.95
)

future_data$yhat2 <- fc2[, 1]
future_data$lower2 <- fc2[, 2]
future_data$upper2 <- fc2[, 3]
future_data

# A tsibble: 60 x 6 [1M]
      index trend month    yhat2   lower2   upper2
      <mth> <int> <ord>    <dbl>    <dbl>    <dbl>
 1 2025 Oct   298 Oct   2200841. 1946300. 2455381.
 2 2025 Nov   299 Nov   2475847. 2221306. 2730388.
 3 2025 Dec   300 Dec   2972377. 2717836. 3226918.
 4 2026 Jan   301 Jan   3268805. 3014364. 3523246.
 5 2026 Feb   302 Feb   2941474. 2687033. 3195915.
 6 2026 Mar   303 Mar   2739684. 2485243. 2994125.
 7 2026 Apr   304 Apr   2310836. 2056396. 2565277.
 8 2026 May   305 May   2148465. 1894024. 2402906.
 9 2026 Jun   306 Jun   2162872. 1908431. 2417313.
10 2026 Jul   307 Jul   2356688. 2102247. 2611129.
# ℹ 50 more rows
…
future_data$structural_break <- 1
fc3 <- predict(
    object = md3,
    newdata = future_data,
    interval = "prediction",
    level = 0.95
)

future_data$yhat3 <- fc3[, 1]
future_data$lower3 <- fc3[, 2]
future_data$upper3 <- fc3[, 3]
future_data

# A tsibble: 60 x 10 [1M]
      index trend month    yhat2   lower2  upper2 structural_break  yhat3 lower3
      <mth> <int> <ord>    <dbl>    <dbl>   <dbl>            <dbl>  <dbl>  <dbl>
 1 2025 Oct   298 Oct   2200841. 1946300.  2.46e6                1 2.22e6 1.98e6
 2 2025 Nov   299 Nov   2475847. 2221306.  2.73e6                1 2.49e6 2.25e6
 3 2025 Dec   300 Dec   2972377. 2717836.  3.23e6                1 2.99e6 2.75e6
 4 2026 Jan   301 Jan   3268805. 3014364.  3.52e6                1 3.28e6 3.05e6
 5 2026 Feb   302 Feb   2941474. 2687033.  3.20e6                1 2.95e6 2.72e6
 6 2026 Mar   303 Mar   2739684. 2485243.  2.99e6                1 2.75e6 2.52e6
 7 2026 Apr   304 Apr   2310836. 2056396.  2.57e6                1 2.32e6 2.09e6
 8 2026 May   305 May   2148465. 1894024.  2.40e6                1 2.16e6 1.92e6
 9 2026 Jun   306 Jun   2162872. 1908431.  2.42e6                1 2.18e6 1.94e6
10 2026 Jul   307 Jul   2356688. 2102247.  2.61e6                1 2.37e6 2.13e6
# ℹ 50 more rows
# ℹ 1 more variable: upper3 <dbl>
…
